-------------------------------------------------------------------------------
Test set: fr.iut.DueDocumentTest
-------------------------------------------------------------------------------
Tests run: 2, Failures: 0, Errors: 0, Skipped: 0, Time elapsed: 0.034 sec
